%YAML 1.1
%TAG !u! tag:unity3d.com,2011:
--- !u!1001 &100100000
Prefab:
  m_ObjectHideFlags: 1
  serializedVersion: 2
  m_Modification:
    m_TransformParent: {fileID: 0}
    m_Modifications: []
    m_RemovedComponents: []
  m_ParentPrefab: {fileID: 0}
  m_RootGameObject: {fileID: 1231689678409660}
  m_IsPrefabParent: 1
--- !u!1 &1231689678409660
GameObject:
  m_ObjectHideFlags: 0
  m_PrefabParentObject: {fileID: 0}
  m_PrefabInternal: {fileID: 100100000}
  serializedVersion: 5
  m_Component:
  - component: {fileID: 4949171720487218}
  - component: {fileID: 114923975517759108}
  m_Layer: 0
  m_Name: DinoOro
  m_TagString: Untagged
  m_Icon: {fileID: 0}
  m_NavMeshLayer: 0
  m_StaticEditorFlags: 0
  m_IsActive: 1
--- !u!4 &4949171720487218
Transform:
  m_ObjectHideFlags: 1
  m_PrefabParentObject: {fileID: 0}
  m_PrefabInternal: {fileID: 100100000}
  m_GameObject: {fileID: 1231689678409660}
  m_LocalRotation: {x: 0, y: 0, z: 0, w: 1}
  m_LocalPosition: {x: 58.37451, y: 36.49199, z: -0.9466574}
  m_LocalScale: {x: 1, y: 1, z: 1}
  m_Children: []
  m_Father: {fileID: 0}
  m_RootOrder: 0
  m_LocalEulerAnglesHint: {x: 0, y: 0, z: 0}
--- !u!114 &114923975517759108
MonoBehaviour:
  m_ObjectHideFlags: 1
  m_PrefabParentObject: {fileID: 0}
  m_PrefabInternal: {fileID: 100100000}
  m_GameObject: {fileID: 1231689678409660}
  m_Enabled: 1
  m_EditorHideFlags: 0
  m_Script: {fileID: 11500000, guid: 9195dcafd18f9a744a59155ca3acf0cf, type: 3}
  m_Name: 
  m_EditorClassIdentifier: 
  fundoTema: {fileID: 21300000, guid: 8185fa6e9fed17846b12f71a654a8291, type: 3}
  xTema: {fileID: 21300000, guid: 2651fdbdb743dd4428cd8f14e0c5ff02, type: 3}
  oTema: {fileID: 21300000, guid: f408e5dbbfb4b8c46bb25674bb7e7971, type: 3}
  nomeTema: Dinossauro vs Meteoro
  corFundo: {r: 0.8862745, g: 0.8862745, b: 0.8862745, a: 1}
