%YAML 1.1
%TAG !u! tag:unity3d.com,2011:
--- !u!1001 &100100000
Prefab:
  m_ObjectHideFlags: 1
  serializedVersion: 2
  m_Modification:
    m_TransformParent: {fileID: 0}
    m_Modifications: []
    m_RemovedComponents: []
  m_ParentPrefab: {fileID: 0}
  m_RootGameObject: {fileID: 1066253187348898}
  m_IsPrefabParent: 1
--- !u!1 &1066253187348898
GameObject:
  m_ObjectHideFlags: 0
  m_PrefabParentObject: {fileID: 0}
  m_PrefabInternal: {fileID: 100100000}
  serializedVersion: 5
  m_Component:
  - component: {fileID: 4846007648829908}
  - component: {fileID: 114073316371981206}
  m_Layer: 0
  m_Name: Simples
  m_TagString: Untagged
  m_Icon: {fileID: 0}
  m_NavMeshLayer: 0
  m_StaticEditorFlags: 0
  m_IsActive: 1
--- !u!4 &4846007648829908
Transform:
  m_ObjectHideFlags: 1
  m_PrefabParentObject: {fileID: 0}
  m_PrefabInternal: {fileID: 100100000}
  m_GameObject: {fileID: 1066253187348898}
  m_LocalRotation: {x: 0, y: 0, z: 0, w: 1}
  m_LocalPosition: {x: 58.37451, y: 36.49199, z: -0.9466574}
  m_LocalScale: {x: 1, y: 1, z: 1}
  m_Children: []
  m_Father: {fileID: 0}
  m_RootOrder: 0
  m_LocalEulerAnglesHint: {x: 0, y: 0, z: 0}
--- !u!114 &114073316371981206
MonoBehaviour:
  m_ObjectHideFlags: 1
  m_PrefabParentObject: {fileID: 0}
  m_PrefabInternal: {fileID: 100100000}
  m_GameObject: {fileID: 1066253187348898}
  m_Enabled: 1
  m_EditorHideFlags: 0
  m_Script: {fileID: 11500000, guid: 9195dcafd18f9a744a59155ca3acf0cf, type: 3}
  m_Name: 
  m_EditorClassIdentifier: 
  fundoTema: {fileID: 21300000, guid: d350270801a324846981000d76ce480f, type: 3}
  xTema: {fileID: 21300000, guid: d6664c72271d6af40b82ceb9387aa620, type: 3}
  oTema: {fileID: 21300000, guid: c4d04f8e5b83f0b47a1242b5ab31c930, type: 3}
  nomeTema: Simples
  corFundo: {r: 1, g: 1, b: 1, a: 1}
